<?xml version="1.0" encoding="utf-8"?>
<!-- Generator: Adobe Illustrator 16.0.0, SVG Export Plug-In . SVG Version: 6.00 Build 0)  -->
<!DOCTYPE svg PUBLIC "-//W3C//DTD SVG 1.1//EN" "http://www.w3.org/Graphics/SVG/1.1/DTD/svg11.dtd">
<svg version="1.1" xmlns="http://www.w3.org/2000/svg" xmlns:xlink="http://www.w3.org/1999/xlink" x="0px" y="0px"
	 width="50.462px" height="58.5px" viewBox="0 0 50.462 58.5" enable-background="new 0 0 50.462 58.5" xml:space="preserve">
<g id="Layer_1">
	<g>
		<g>
			<path fill="#CCFF90" d="M38.422,58.5H13.125c-0.138,0-0.25-0.112-0.25-0.25c0-0.469-0.003-0.934-0.005-1.395
				c-0.006-1.036-0.012-2.015,0.011-3.016c0.12-5.424-1.776-10.266-6.149-15.698c-2.919-3.625-5.824-7.59-6.5-12.684
				C-1.251,14.273,4.451,5.202,15.114,1.785C18.813,0.601,22.445,0,25.912,0c4.776,0,9.408,1.141,13.765,3.39
				c0.56,0.289,1.091,0.625,1.652,0.981c0.266,0.168,0.539,0.342,0.827,0.517C42.225,4.929,42.269,5,42.275,5.079
				s-0.023,0.157-0.083,0.21L41.65,5.767l4.233,5.334c0.085,0.107,0.067,0.264-0.039,0.35l-1.13,0.91
				c0.17,0.404,0.344,0.809,0.518,1.213c0.448,1.042,0.911,2.12,1.316,3.204c0.464,1.25,0.933,2.598,1.213,3.992
				c0.113,0.563,0.064,1.148,0.018,1.715c-0.026,0.321-0.054,0.654-0.05,0.972l0.002,0.244c0.005,0.559,0.009,1.135,0.172,1.628
				c0.686,2.071,1.456,4.231,2.355,6.603c0.249,0.655,0.27,1.216,0.06,1.665c-0.198,0.426-0.599,0.747-1.188,0.954
				c-0.613,0.214-0.78,0.549-0.64,1.279c0.027,0.141,0.047,0.283,0.066,0.426c0.038,0.274,0.074,0.532,0.161,0.765
				c0.386,1.028,0.696,2.456-0.856,3.283c1.195,1.371,1.21,1.874,0.356,3.538c-0.154,0.299-0.196,0.672-0.241,1.067
				c-0.015,0.137-0.03,0.273-0.051,0.407c-0.048,0.316-0.073,0.773-0.098,1.215c-0.073,1.322-0.126,1.963-0.509,2.071
				c-0.503,0.145-1.079,0.218-1.714,0.218c-1.12,0-2.029-0.226-2.067-0.235c-0.861-0.149-1.561-0.225-2.117-0.225
				c-2.064,0-2.68,0.936-2.743,4.17c-0.025,1.279-0.019,2.538-0.012,3.871c0.003,0.609,0.006,1.225,0.006,1.849
				C38.672,58.387,38.56,58.5,38.422,58.5z M13.375,58h24.797c-0.001-0.538-0.004-1.069-0.006-1.596
				c-0.007-1.337-0.014-2.599,0.012-3.884c0.06-3.022,0.595-4.66,3.243-4.66c0.595,0,1.3,0.075,2.221,0.236
				c0.026,0.006,0.908,0.224,1.964,0.224c0.569,0,1.085-0.063,1.533-0.187c0.111-0.204,0.16-1.092,0.19-1.631
				c0.026-0.474,0.051-0.922,0.103-1.261c0.02-0.128,0.034-0.258,0.049-0.389c0.048-0.423,0.097-0.86,0.292-1.24
				c0.773-1.506,0.821-1.755-0.505-3.226c-0.055-0.06-0.076-0.143-0.059-0.222s0.073-0.145,0.147-0.176
				c1.192-0.499,1.451-1.308,0.893-2.794c-0.106-0.284-0.147-0.583-0.188-0.872c-0.019-0.134-0.036-0.269-0.062-0.4
				c-0.127-0.657-0.132-1.461,0.964-1.846c0.459-0.16,0.762-0.394,0.901-0.692c0.15-0.323,0.126-0.752-0.073-1.276
				c-0.902-2.378-1.675-4.545-2.363-6.624c-0.188-0.566-0.192-1.184-0.197-1.78l-0.002-0.242c-0.005-0.341,0.024-0.686,0.052-1.02
				c0.046-0.556,0.09-1.081-0.01-1.574c-0.273-1.36-0.734-2.686-1.191-3.916c-0.4-1.072-0.861-2.145-1.307-3.182
				c-0.199-0.464-0.398-0.927-0.593-1.391c-0.043-0.103-0.013-0.222,0.074-0.292l1.082-0.871l-4.226-5.325
				c-0.082-0.104-0.069-0.254,0.03-0.343l0.467-0.412c-0.188-0.116-0.369-0.231-0.547-0.345c-0.552-0.35-1.073-0.68-1.613-0.958
				C35.162,1.622,30.608,0.5,25.912,0.5c-3.415,0-6.997,0.593-10.646,1.762C4.85,5.599-0.722,14.462,0.728,25.391
				c0.658,4.967,3.52,8.867,6.393,12.436c4.453,5.532,6.384,10.474,6.261,16.024c-0.022,0.993-0.017,1.969-0.011,3.002
				C13.372,57.232,13.374,57.615,13.375,58z"/>
		</g>
		<g>
			<path fill="#CCFF90" d="M28.006,27.679c-1.604,0-2.102-1.06-2.377-2.097c-0.225-0.845-0.728-1.286-1.626-1.424
				c-0.176,0.066-0.358,0.131-0.544,0.197c-0.471,0.166-0.957,0.339-1.405,0.571c-0.272,0.142-0.521,0.21-0.764,0.21l0,0
				c-0.573,0-0.952-0.391-1.287-0.734c-0.141-0.145-0.272-0.281-0.415-0.39c-0.814-0.622-0.466-1.337-0.212-1.859l0.06-0.123
				c0.194-0.398,0.396-0.812,0.546-1.227c0.314-0.86,0.072-1.465-0.738-1.846c-0.352-0.166-0.694-0.302-1.019-0.403
				c-1.184-0.371-1.685-1.062-1.677-2.309c0.008-1.153,0.684-1.453,1.28-1.717c0.117-0.052,0.236-0.104,0.354-0.164
				c0.123-0.063,0.254-0.125,0.389-0.188c0.55-0.261,1.173-0.556,1.317-0.931c0.214-0.554-0.017-1.457-0.339-2.106
				c-0.57-1.15-0.402-1.951,0.581-2.766c0.758-0.631,1.328-0.715,2.065-0.344c0.448,0.227,0.915,0.411,1.478,0.618
				c0.766,0.282,1.355,0.046,1.775-0.711c0.271-0.487,0.456-0.921,0.566-1.325c0.336-1.234,1.269-1.266,2.171-1.296l0.116-0.002
				c0.952,0,1.501,0.411,1.778,1.333c0.128,0.424,0.292,0.844,0.486,1.249c0.36,0.749,0.955,1.006,1.759,0.777
				c0.46-0.132,0.993-0.304,1.459-0.572c0.305-0.176,0.587-0.261,0.863-0.261c0.587,0,0.995,0.383,1.389,0.752
				c0.12,0.113,0.241,0.227,0.369,0.33c0.808,0.65,0.504,1.321,0.26,1.86c-0.032,0.071-0.064,0.143-0.095,0.214
				c-0.075,0.18-0.161,0.354-0.246,0.529c-0.118,0.244-0.23,0.475-0.316,0.715c-0.266,0.741-0.049,1.309,0.645,1.686
				c0.449,0.244,0.935,0.488,1.438,0.618c1.235,0.316,1.276,1.236,1.315,2.126c0.055,1.228-0.67,1.608-1.308,1.807
				c-0.458,0.144-0.922,0.319-1.379,0.523c-0.75,0.335-0.999,0.906-0.763,1.748c0.07,0.246,0.183,0.483,0.302,0.735
				c0.061,0.128,0.121,0.257,0.177,0.387l0.067,0.157c0.287,0.662,0.612,1.412-0.283,2.24c-0.488,0.451-1.034,0.868-1.712,0.868
				c-0.356,0-0.719-0.114-1.108-0.351c-0.417-0.251-0.818-0.422-1.192-0.506c-0.893-0.202-1.435,0.126-1.905,1.186
				c-0.075,0.169-0.131,0.353-0.188,0.536c-0.217,0.7-0.485,1.572-1.816,1.666C28.197,27.676,28.1,27.679,28.006,27.679z
				 M23.975,23.652c0.011,0,0.022,0.001,0.033,0.002c1.135,0.154,1.823,0.742,2.104,1.8c0.304,1.139,0.751,1.811,2.152,1.717
				c0.989-0.07,1.159-0.62,1.373-1.315c0.063-0.203,0.126-0.405,0.209-0.592c0.293-0.659,0.81-1.536,1.912-1.536
				c0.176,0,0.363,0.021,0.56,0.065c0.427,0.097,0.879,0.287,1.342,0.566c0.794,0.481,1.295,0.4,2.222-0.457
				c0.636-0.587,0.448-1.02,0.164-1.674l-0.069-0.161c-0.052-0.124-0.11-0.246-0.168-0.368c-0.122-0.259-0.249-0.527-0.33-0.813
				c-0.304-1.075,0.066-1.906,1.04-2.341c0.475-0.211,0.957-0.395,1.434-0.543c0.739-0.23,0.99-0.564,0.958-1.277
				c-0.043-0.977-0.104-1.479-0.941-1.694c-0.558-0.144-1.076-0.403-1.553-0.663c-0.917-0.499-1.229-1.313-0.877-2.293
				c0.095-0.267,0.219-0.521,0.338-0.766c0.081-0.167,0.162-0.334,0.234-0.504c0.032-0.076,0.066-0.151,0.101-0.228
				c0.255-0.563,0.365-0.874-0.119-1.265c-0.137-0.11-0.268-0.232-0.396-0.354c-0.521-0.489-0.96-0.827-1.66-0.423
				c-0.513,0.295-1.082,0.479-1.571,0.619c-1.044,0.299-1.882-0.075-2.348-1.041c-0.205-0.429-0.378-0.873-0.514-1.321
				c-0.215-0.713-0.566-0.978-1.3-0.978l-0.1,0.002c-0.963,0.032-1.477,0.088-1.705,0.927c-0.121,0.444-0.321,0.914-0.611,1.438
				c-0.537,0.966-1.389,1.304-2.385,0.937c-0.58-0.213-1.062-0.403-1.53-0.64c-0.557-0.281-0.915-0.221-1.522,0.281
				c-0.807,0.669-0.92,1.214-0.452,2.158c0.345,0.692,0.645,1.766,0.358,2.509c-0.216,0.562-0.936,0.902-1.57,1.203
				c-0.13,0.062-0.257,0.122-0.376,0.182c-0.126,0.064-0.254,0.121-0.379,0.177c-0.588,0.26-0.977,0.432-0.982,1.263
				c-0.007,1.04,0.341,1.519,1.327,1.828c0.346,0.108,0.709,0.252,1.081,0.427c1.044,0.491,1.397,1.368,0.996,2.471
				c-0.16,0.439-0.367,0.863-0.567,1.273l-0.06,0.123c-0.294,0.604-0.377,0.905,0.065,1.243c0.172,0.131,0.324,0.287,0.471,0.438
				c0.438,0.45,0.81,0.768,1.462,0.43c0.479-0.249,0.982-0.427,1.469-0.6c0.203-0.071,0.401-0.142,0.593-0.216
				C23.913,23.658,23.944,23.652,23.975,23.652z"/>
		</g>
		<g>
			<path fill="#CCFF90" d="M14.126,27.153c-0.369,0-0.874-0.322-1.078-0.611c-0.338-0.475-0.57-0.529-0.716-0.529
				c-0.188,0-0.415,0.102-0.696,0.311c-0.336,0.249-1.05,0.298-1.443,0.104c-0.381-0.19-0.55-0.91-0.474-1.284
				c0.078-0.379,0.053-0.647-0.076-0.819c-0.126-0.168-0.369-0.284-0.764-0.364c-0.392-0.08-0.998-0.454-1.06-0.857
				c-0.066-0.438,0.177-1.052,0.529-1.343c0.561-0.458,0.621-0.795,0.248-1.384C8.354,19.989,8.214,19.343,8.4,18.93
				c0.143-0.317,0.532-0.465,0.79-0.563c0.063-0.024,0.118-0.044,0.153-0.063c0.055-0.03,0.119-0.041,0.178-0.024
				c0.867,0.207,1.193,0.084,1.323-0.75c0.063-0.396,0.438-1.036,0.86-1.096c0.424-0.063,1.061,0.226,1.325,0.59
				c0.322,0.446,0.557,0.498,0.705,0.498c0.197,0,0.432-0.102,0.737-0.32c0.337-0.241,0.984-0.335,1.268-0.14
				c0.333,0.232,0.654,0.811,0.589,1.237c-0.067,0.439-0.029,0.75,0.116,0.948c0.146,0.197,0.432,0.326,0.873,0.393
				c0.421,0.064,0.866,0.551,0.983,0.943c0.11,0.365-0.186,0.949-0.504,1.17c-0.368,0.256-0.557,0.48-0.591,0.707
				c-0.033,0.216,0.071,0.476,0.319,0.794c0.242,0.311,0.366,0.99,0.156,1.367c-0.204,0.361-0.844,0.592-1.248,0.546
				c-0.674-0.067-1.092-0.049-1.195,0.816c-0.052,0.438-0.494,0.98-0.928,1.138C14.256,27.143,14.193,27.153,14.126,27.153z
				 M12.332,25.512c0.534,0,0.897,0.422,1.123,0.739c0.131,0.185,0.494,0.401,0.671,0.401c0.012,0,0.017-0.001,0.017-0.001
				c0.25-0.091,0.57-0.478,0.601-0.726c0.12-1.021,0.652-1.365,1.745-1.255c0.339,0.017,0.685-0.164,0.758-0.294
				c0.095-0.17,0.031-0.628-0.114-0.815c-0.337-0.432-0.474-0.816-0.419-1.176c0.057-0.372,0.311-0.703,0.8-1.042
				c0.185-0.128,0.343-0.507,0.311-0.616c-0.072-0.242-0.387-0.563-0.58-0.593c-0.587-0.088-0.969-0.275-1.2-0.591
				c-0.232-0.314-0.298-0.734-0.208-1.32c0.031-0.204-0.171-0.604-0.38-0.75c-0.008-0.006-0.053-0.022-0.143-0.022
				c-0.185,0-0.426,0.069-0.549,0.157c-0.915,0.654-1.536,0.544-2.139-0.291c-0.146-0.201-0.531-0.392-0.793-0.392
				c-0.172,0.027-0.449,0.403-0.493,0.683c-0.091,0.582-0.314,1.251-1.243,1.251c-0.179,0-0.378-0.023-0.604-0.073
				c-0.037,0.016-0.079,0.031-0.124,0.049c-0.158,0.06-0.453,0.171-0.512,0.3c-0.096,0.214-0.017,0.687,0.164,0.974
				c0.511,0.807,0.405,1.416-0.354,2.037c-0.214,0.176-0.392,0.62-0.353,0.881c0.02,0.11,0.378,0.384,0.665,0.442
				c0.521,0.106,0.859,0.282,1.063,0.554c0.221,0.294,0.275,0.692,0.167,1.22c-0.05,0.245,0.103,0.679,0.206,0.736
				c0.22,0.109,0.739,0.08,0.923-0.058C11.713,25.642,12.029,25.512,12.332,25.512z"/>
		</g>
	</g>
</g>
<g id="Layer_2">
</g>
<g id="Layer_3">
</g>
</svg>
